…
Flights Data
========================================================


```r
library(nycflights13)

flights
```

```
# A tibble: 336,776 × 19
    year month   day dep_time sched_dep_time dep_delay arr_time
   <int> <int> <int>    <int>          <int>     <dbl>    <int>
1   2013     1     1      517            515         2      830
2   2013     1     1      533            529         4      850
3   2013     1     1      542            540         2      923
4   2013     1     1      544            545        -1     1004
5   2013     1     1      554            600        -6      812
6   2013     1     1      554            558        -4      740
7   2013     1     1      555            600        -5      913
8   2013     1     1      557            600        -3      709
9   2013     1     1      557            600        -3      838
10  2013     1     1      558            600        -2      753
# ... with 336,766 more rows, and 12 more variables: sched_arr_time <int>,
#   arr_delay <dbl>, carrier <chr>, flight <int>, tailnum <chr>,
#   origin <chr>, dest <chr>, air_time <dbl>, distance <dbl>, hour <dbl>,
#   minute <dbl>, time_hour <dttm>
```
Dataset
- 336,776 flights that departed from New York City in 2013
- From the [US Bureau of Transportation Statistics](http://www.transtats.bts.gov/DatabaseInfo.asp?DB_ID=120&Link=0)

filter - 1
========================================================


```r
flights %>%
  filter(month == 1 &  day == 1)
```

```
# A tibble: 842 × 19
    year month   day dep_time sched_dep_time dep_delay arr_time
   <int> <int> <int>    <int>          <int>     <dbl>    <int>
1   2013     1     1      517            515         2      830
2   2013     1     1      533            529         4      850
3   2013     1     1      542            540         2      923
4   2013     1     1      544            545        -1     1004
5   2013     1     1      554            600        -6      812
6   2013     1     1      554            558        -4      740
7   2013     1     1      555            600        -5      913
8   2013     1     1      557            600        -3      709
9   2013     1     1      557            600        -3      838
10  2013     1     1      558            600        -2      753
# ... with 832 more rows, and 12 more variables: sched_arr_time <int>,
#   arr_delay <dbl>, carrier <chr>, flight <int>, tailnum <chr>,
#   origin <chr>, dest <chr>, air_time <dbl>, distance <dbl>, hour <dbl>,
#   minute <dbl>, time_hour <dttm>
```


filter - 2
========================================================


```r
flights %>%
  filter(dest %in% c("PHL","SLC") & month <= 6)
```

```
# A tibble: 2,116 × 19
    year month   day dep_time sched_dep_time dep_delay arr_time
   <int> <int> <int>    <int>          <int>     <dbl>    <int>
1   2013     1     1      655            655         0     1021
2   2013     1     1      908            915        -7     1004
3   2013     1     1     1047           1050        -3     1401
4   2013     1     1     1245           1245         0     1616
5   2013     1     1     1323           1300        23     1651
6   2013     1     1     1543           1550        -7     1933
7   2013     1     1     1600           1610       -10     1712
8   2013     1     1     1909           1912        -3     2239
9   2013     1     1     1915           1920        -5     2238
10  2013     1     1     2000           2000         0     2054
# ... with 2,106 more rows, and 12 more variables: sched_arr_time <int>,
#   arr_delay <dbl>, carrier <chr>, flight <int>, tailnum <chr>,
#   origin <chr>, dest <chr>, air_time <dbl>, distance <dbl>, hour <dbl>,
#   minute <dbl>, time_hour <dttm>
```

select
========================================================


```r
flights %>%
  filter(dest %in% c("PHL","SLC") & month <= 6) %>%
  select(origin, dest, carrier)
```

```
# A tibble: 2,116 × 3
   origin  dest carrier
    <chr> <chr>   <chr>
1     JFK   SLC      DL
2     LGA   PHL      US
3     JFK   SLC      DL
4     JFK   SLC      DL
5     EWR   SLC      DL
6     JFK   SLC      DL
7     JFK   PHL      9E
8     JFK   SLC      B6
9     JFK   SLC      DL
10    JFK   PHL      9E
# ... with 2,106 more rows
```
…
```r
flights %>%
  mutate(
    gain = arr_delay - dep_delay
  , speed = distance / air_time * 60
  , gain_per_hour = gain / (air_time / 60)
  ) %>% 
  select(dep_delay, arr_delay, gain, distance, distance, air_time, speed, gain_per_hour)
```

```
# A tibble: 336,776 × 7
   dep_delay arr_delay  gain distance air_time    speed gain_per_hour
       <dbl>     <dbl> <dbl>    <dbl>    <dbl>    <dbl>         <dbl>
1          2        11     9     1400      227 370.0441      2.378855
2          4        20    16     1416      227 374.2731      4.229075
3          2        33    31     1089      160 408.3750     11.625000
4         -1       -18   -17     1576      183 516.7213     -5.573770
5         -6       -25   -19      762      116 394.1379     -9.827586
6         -4        12    16      719      150 287.6000      6.400000
7         -5        19    24     1065      158 404.4304      9.113924
8         -3       -14   -11      229       53 259.2453    -12.452830
9         -3        -8    -5      944      140 404.5714     -2.142857
10        -2         8    10      733      138 318.6957      4.347826
# ... with 336,766 more rows
```
…
```r
flights %>%
  group_by(origin, dest) %>%
  summarise(
      n = n()
    , min = min(distance)
    , max = max(distance)
    , median = median(distance)
  ) %>%
  arrange(desc(median))
```

```
Source: local data frame [224 x 6]
Groups: origin [3]

   origin  dest     n   min   max median
    <chr> <chr> <int> <dbl> <dbl>  <dbl>
1     JFK   HNL   342  4983  4983   4983
2     EWR   HNL   365  4963  4963   4963
3     EWR   ANC     8  3370  3370   3370
4     JFK   SFO  8204  2586  2586   2586
5     JFK   OAK   312  2576  2576   2576
6     JFK   SJC   329  2569  2569   2569
7     EWR   SFO  5127  2565  2565   2565
8     JFK   SMF   284  2521  2521   2521
9     JFK   LAX 11262  2475  2475   2475
10    JFK   BUR   371  2465  2465   2465
# ... with 214 more rows
```
