Exploratory Data Analysis
…
group_by / summarise - 3

What is the farthest flight to leave NYC?

flights %>%
  group_by(origin, dest) %>%
  summarise(
      n = n()
    , min = min(distance)
    , max = max(distance)
    , median = median(distance)
  ) %>%
  arrange(desc(median))

Source: local data frame [224 x 6]
Groups: origin [3]

   origin  dest     n   min   max median
    <chr> <chr> <int> <dbl> <dbl>  <dbl>
1     JFK   HNL   342  4983  4983   4983
2     EWR   HNL   365  4963  4963   4963
3     EWR   ANC     8  3370  3370   3370
4     JFK   SFO  8204  2586  2586   2586
5     JFK   OAK   312  2576  2576   2576
6     JFK   SJC   329  2569  2569   2569
7     EWR   SFO  5127  2565  2565   2565
8     JFK   SMF   284  2521  2521   2521
9     JFK   LAX 11262  2475  2475   2475
10    JFK   BUR   371  2465  2465   2465
# ... with 214 more rows
…
